Final report
…
dir_act <-dir_act[order(-dir_act$g_mean),] %>% filter(join_movies > 1) 

# top_dir_act
m_common = dir_act %>% filter(join_movies==max(dir_act$join_movies))
print(paste("is most common due is:" ,m_common$director_name,"and",m_common$main_actor, "with",m_common$join_movies, "joint movies together" ))

## [1] "is most common due is: Clint Eastwood and Clint Eastwood with 8 joint movies together"

dir_act

## # A tibble: 237 x 6
##    director_name    main_actor         join_movies   g_mean imdb_mean winner_sum
##    <chr>            <chr>                    <dbl>    <dbl>     <dbl>      <dbl>
##  1 Joss Whedon      Chris Hemsworth              3   5.69e8      7.9           0
##  2 George Lucas     Natalie Portman              3   3.88e8      6.93          0
##  3 Michael Bay      Glenn Morshower              2   3.77e8      6.15          0
##  4 Jon Favreau      Scarlett Johansson           2   3.63e8      7.8           2
##  5 Francis Lawrence Jennifer Lawrence            3   3.48e8      6.97          0
##  6 Peter Jackson    Christopher Lee              2   3.27e8      8.75          2
##  7 Jon Favreau      Robert Downey Jr.            2   3.15e8      7.45          0
##  8 Zack Snyder      Henry Cavill                 2   3.11e8      7.05          0
##  9 Pierre Coffin    Steve Carell                 2   3.10e8      7.6           0
## 10 Sam Mendes       Albert Finney                2   3.04e8      7.8           2
## # ... with 227 more rows
…
